{
  [{
    "username": "kehinde",
    "fullname": "Kehinde Omotoso",
    "expenseItems": [
      {
        "itemName": "Rice",
        "itemAmount": 2000,
        "expenseDate": "10-10-2020"
      },
      {
        "itemName": "Beans",
        "itemAmount": 1500,
        "expenseDate": "12-10-2020"
      }
    ]
  },
    {
      "username": "faderin",
      "fullname": "Dare Faderin",
      "expenseItems": [
        {
          "itemName": "Amala",
          "itemAmount": 900,
          "expenseDate": "10-05-2020"
        },
        {
          "itemName": "Pounded Yam",
          "itemAmount": 2300,
          "expenseDate": "12-09-2020"
        }
      ]
    }
  ]
}